%!PS-Adobe-3.0 EPSF-3.0
%%Creator: MATLAB, The MathWorks, Inc. Version 7.12.0.635 (R2011a). Operating System: Darwin 12.3.0 Darwin Kernel Version 12.3.0: Sun Jan  6 22:37:10 PST 2013; root:xnu-2050.22.13~1/RELEASE_X86_64 x86_64.
%%Title: /Users/mattiagarabelli/Desktop/Latex -Tesi/confronto_!d_c05.eps
%%CreationDate: 05/03/2013  14:54:22
%%DocumentNeededFonts: Helvetica
%%DocumentProcessColors: Cyan Magenta Yellow Black
%%LanguageLevel: 2
%%Pages: 1
%%BoundingBox:    17   210   576   632
%%EndComments

%%BeginProlog
% MathWorks dictionary
/MathWorks 160 dict begin
% definition operators
/bdef {bind def} bind def
/ldef {load def} bind def
/xdef {exch def} bdef
/xstore {exch store} bdef
% operator abbreviations
/c  /clip ldef
/cc /concat ldef
/cp /closepath ldef
/gr /grestore ldef
/gs /gsave ldef
/mt /moveto ldef
/np /newpath ldef
/cm /currentmatrix ldef
/sm /setmatrix ldef
/rm /rmoveto ldef
/rl /rlineto ldef
/s {show newpath} bdef
/sc {setcmykcolor} bdef
/sr /setrgbcolor ldef
/sg /setgray ldef
/w /setlinewidth ldef
/j /setlinejoin ldef
/cap /setlinecap ldef
/rc {rectclip} bdef
/rf {rectfill} bdef
% page state control
/pgsv () def
/bpage {/pgsv save def} bdef
/epage {pgsv restore} bdef
/bplot /gsave ldef
/eplot {stroke grestore} bdef
% orientation switch
/portraitMode 0 def /landscapeMode 1 def /rotateMode 2 def
% coordinate system mappings
/dpi2point 0 def
% font control
/FontSize 0 def
/FMS {/FontSize xstore findfont [FontSize 0 0 FontSize neg 0 0]
  makefont setfont} bdef
/reencode {exch dup where {pop load} {pop StandardEncoding} ifelse
  exch dup 3 1 roll findfont dup length dict begin
  { 1 index /FID ne {def}{pop pop} ifelse } forall
  /Encoding exch def currentdict end definefont pop} bdef
/isroman {findfont /CharStrings get /Agrave known} bdef
/FMSR {3 1 roll 1 index dup isroman {reencode} {pop pop} ifelse
  exch FMS} bdef
/csm {1 dpi2point div -1 dpi2point div scale neg translate
 dup landscapeMode eq {pop -90 rotate}
  {rotateMode eq {90 rotate} if} ifelse} bdef
% line types: solid, dotted, dashed, dotdash
/SO { [] 0 setdash } bdef
/DO { [.5 dpi2point mul 4 dpi2point mul] 0 setdash } bdef
/DA { [6 dpi2point mul] 0 setdash } bdef
/DD { [.5 dpi2point mul 4 dpi2point mul 6 dpi2point mul 4
  dpi2point mul] 0 setdash } bdef
% macros for lines and objects
/L {lineto stroke} bdef
/MP {3 1 roll moveto 1 sub {rlineto} repeat} bdef
/AP {{rlineto} repeat} bdef
/PDlw -1 def
/W {/PDlw currentlinewidth def setlinewidth} def
/PP {closepath eofill} bdef
/DP {closepath stroke} bdef
/MR {4 -2 roll moveto dup  0 exch rlineto exch 0 rlineto
  neg 0 exch rlineto closepath} bdef
/FR {MR stroke} bdef
/PR {MR fill} bdef
/L1i {{currentfile picstr readhexstring pop} image} bdef
/tMatrix matrix def
/MakeOval {newpath tMatrix currentmatrix pop translate scale
0 0 1 0 360 arc tMatrix setmatrix} bdef
/FO {MakeOval stroke} bdef
/PO {MakeOval fill} bdef
/PD {currentlinewidth 2 div 0 360 arc fill
   PDlw -1 eq not {PDlw w /PDlw -1 def} if} def
/FA {newpath tMatrix currentmatrix pop translate scale
  0 0 1 5 -2 roll arc tMatrix setmatrix stroke} bdef
/PA {newpath tMatrix currentmatrix pop	translate 0 0 moveto scale
  0 0 1 5 -2 roll arc closepath tMatrix setmatrix fill} bdef
/FAn {newpath tMatrix currentmatrix pop translate scale
  0 0 1 5 -2 roll arcn tMatrix setmatrix stroke} bdef
/PAn {newpath tMatrix currentmatrix pop translate 0 0 moveto scale
  0 0 1 5 -2 roll arcn closepath tMatrix setmatrix fill} bdef
/vradius 0 def /hradius 0 def /lry 0 def
/lrx 0 def /uly 0 def /ulx 0 def /rad 0 def
/MRR {/vradius xdef /hradius xdef /lry xdef /lrx xdef /uly xdef
  /ulx xdef newpath tMatrix currentmatrix pop ulx hradius add uly
  vradius add translate hradius vradius scale 0 0 1 180 270 arc 
  tMatrix setmatrix lrx hradius sub uly vradius add translate
  hradius vradius scale 0 0 1 270 360 arc tMatrix setmatrix
  lrx hradius sub lry vradius sub translate hradius vradius scale
  0 0 1 0 90 arc tMatrix setmatrix ulx hradius add lry vradius sub
  translate hradius vradius scale 0 0 1 90 180 arc tMatrix setmatrix
  closepath} bdef
/FRR {MRR stroke } bdef
/PRR {MRR fill } bdef
/MlrRR {/lry xdef /lrx xdef /uly xdef /ulx xdef /rad lry uly sub 2 div def
  newpath tMatrix currentmatrix pop ulx rad add uly rad add translate
  rad rad scale 0 0 1 90 270 arc tMatrix setmatrix lrx rad sub lry rad
  sub translate rad rad scale 0 0 1 270 90 arc tMatrix setmatrix
  closepath} bdef
/FlrRR {MlrRR stroke } bdef
/PlrRR {MlrRR fill } bdef
/MtbRR {/lry xdef /lrx xdef /uly xdef /ulx xdef /rad lrx ulx sub 2 div def
  newpath tMatrix currentmatrix pop ulx rad add uly rad add translate
  rad rad scale 0 0 1 180 360 arc tMatrix setmatrix lrx rad sub lry rad
  sub translate rad rad scale 0 0 1 0 180 arc tMatrix setmatrix
  closepath} bdef
/FtbRR {MtbRR stroke } bdef
/PtbRR {MtbRR fill } bdef
/stri 6 array def /dtri 6 array def
/smat 6 array def /dmat 6 array def
/tmat1 6 array def /tmat2 6 array def /dif 3 array def
/asub {/ind2 exch def /ind1 exch def dup dup
  ind1 get exch ind2 get sub exch } bdef
/tri_to_matrix {
  2 0 asub 3 1 asub 4 0 asub 5 1 asub
  dup 0 get exch 1 get 7 -1 roll astore } bdef
/compute_transform {
  dmat dtri tri_to_matrix tmat1 invertmatrix 
  smat stri tri_to_matrix tmat2 concatmatrix } bdef
/ds {stri astore pop} bdef
/dt {dtri astore pop} bdef
/db {2 copy /cols xdef /rows xdef mul dup 3 mul string
  currentfile 
  3 index 0 eq {/ASCIIHexDecode filter}
  {/ASCII85Decode filter 3 index 2 eq {/RunLengthDecode filter} if }
  ifelse exch readstring pop
  dup 0 3 index getinterval /rbmap xdef
  dup 2 index dup getinterval /gbmap xdef
  1 index dup 2 mul exch getinterval /bbmap xdef pop pop}bdef
/it {gs np dtri aload pop moveto lineto lineto cp c
  cols rows 8 compute_transform 
  rbmap gbmap bbmap true 3 colorimage gr}bdef
/il {newpath moveto lineto stroke}bdef
currentdict end def
%%EndProlog

%%BeginSetup
MathWorks begin

0 cap

end
%%EndSetup

%%Page: 1 1
%%BeginPageSetup
%%PageBoundingBox:    17   210   576   632
MathWorks begin
bpage
%%EndPageSetup

%%BeginObject: obj1
bplot

/dpi2point 12 def
portraitMode 0204 7584 csm

    0     0  6712  5058 rc
85 dict begin %Colortable dictionary
/c0 { 0.000000 0.000000 0.000000 sr} bdef
/c1 { 1.000000 1.000000 1.000000 sr} bdef
/c2 { 0.900000 0.000000 0.000000 sr} bdef
/c3 { 0.000000 0.820000 0.000000 sr} bdef
/c4 { 0.000000 0.000000 0.800000 sr} bdef
/c5 { 0.910000 0.820000 0.320000 sr} bdef
/c6 { 1.000000 0.260000 0.820000 sr} bdef
/c7 { 0.000000 0.820000 0.820000 sr} bdef
c0
1 j
1 sg
   0    0 6713 5059 rf
6 w
0 4123 5201 0 0 -4123 873 4502 4 MP
PP
-5201 0 0 4123 5201 0 0 -4123 873 4502 5 MP stroke
4 w
DO
0 sg
 873 4502 mt  873  379 L
 873  379 mt  873  379 L
1393 4502 mt 1393  379 L
1393  379 mt 1393  379 L
1913 4502 mt 1913  379 L
1913  379 mt 1913  379 L
2433 4502 mt 2433  379 L
2433  379 mt 2433  379 L
2953 4502 mt 2953  379 L
2953  379 mt 2953  379 L
3473 4502 mt 3473  379 L
3473  379 mt 3473  379 L
3993 4502 mt 3993  379 L
3993  379 mt 3993  379 L
4513 4502 mt 4513  379 L
4513  379 mt 4513  379 L
5033 4502 mt 5033  379 L
5033  379 mt 5033  379 L
5553 4502 mt 5553  379 L
5553  379 mt 5553  379 L
6074 4502 mt 6074  379 L
6074  379 mt 6074  379 L
 873 4502 mt 6074 4502 L
6074 4502 mt 6074 4502 L
 873 4089 mt 6074 4089 L
6074 4089 mt 6074 4089 L
 873 3677 mt 6074 3677 L
6074 3677 mt 6074 3677 L
 873 3265 mt 6074 3265 L
6074 3265 mt 6074 3265 L
 873 2852 mt 6074 2852 L
6074 2852 mt 6074 2852 L
 873 2440 mt 6074 2440 L
6074 2440 mt 6074 2440 L
 873 2028 mt 6074 2028 L
6074 2028 mt 6074 2028 L
 873 1615 mt 6074 1615 L
6074 1615 mt 6074 1615 L
 873 1203 mt 6074 1203 L
6074 1203 mt 6074 1203 L
 873  791 mt 6074  791 L
6074  791 mt 6074  791 L
 873  379 mt 6074  379 L
6074  379 mt 6074  379 L
SO
6 w
 873 4502 mt 6074 4502 L
 873  379 mt 6074  379 L
 873 4502 mt  873  379 L
6074 4502 mt 6074  379 L
 873 4502 mt 6074 4502 L
 873 4502 mt  873  379 L
 873 4502 mt  873 4449 L
 873  379 mt  873  431 L
%%IncludeResource: font Helvetica
/Helvetica /ISOLatin1Encoding 120 FMSR

 720 4647 mt 
(-0.1) s
1393 4502 mt 1393 4449 L
1393  379 mt 1393  431 L
1207 4647 mt 
(-0.08) s
1913 4502 mt 1913 4449 L
1913  379 mt 1913  431 L
1727 4647 mt 
(-0.06) s
2433 4502 mt 2433 4449 L
2433  379 mt 2433  431 L
2247 4647 mt 
(-0.04) s
2953 4502 mt 2953 4449 L
2953  379 mt 2953  431 L
2767 4647 mt 
(-0.02) s
3473 4502 mt 3473 4449 L
3473  379 mt 3473  431 L
3440 4647 mt 
(0) s
3993 4502 mt 3993 4449 L
3993  379 mt 3993  431 L
3877 4647 mt 
(0.02) s
4513 4502 mt 4513 4449 L
4513  379 mt 4513  431 L
4397 4647 mt 
(0.04) s
5033 4502 mt 5033 4449 L
5033  379 mt 5033  431 L
4917 4647 mt 
(0.06) s
5553 4502 mt 5553 4449 L
5553  379 mt 5553  431 L
5437 4647 mt 
(0.08) s
6074 4502 mt 6074 4449 L
6074  379 mt 6074  431 L
5991 4647 mt 
(0.1) s
 873 4502 mt  925 4502 L
6074 4502 mt 6021 4502 L
 772 4546 mt 
(0) s
 873 4089 mt  925 4089 L
6074 4089 mt 6021 4089 L
 672 4133 mt 
(0.1) s
 873 3677 mt  925 3677 L
6074 3677 mt 6021 3677 L
 672 3721 mt 
(0.2) s
 873 3265 mt  925 3265 L
6074 3265 mt 6021 3265 L
 672 3309 mt 
(0.3) s
 873 2852 mt  925 2852 L
6074 2852 mt 6021 2852 L
 672 2896 mt 
(0.4) s
 873 2440 mt  925 2440 L
6074 2440 mt 6021 2440 L
 672 2484 mt 
(0.5) s
 873 2028 mt  925 2028 L
6074 2028 mt 6021 2028 L
 672 2072 mt 
(0.6) s
 873 1615 mt  925 1615 L
6074 1615 mt 6021 1615 L
 672 1659 mt 
(0.7) s
 873 1203 mt  925 1203 L
6074 1203 mt 6021 1203 L
 672 1247 mt 
(0.8) s
 873  791 mt  925  791 L
6074  791 mt 6021  791 L
 672  835 mt 
(0.9) s
 873  379 mt  925  379 L
6074  379 mt 6021  379 L
 772  423 mt 
(1) s
 873 4502 mt 6074 4502 L
 873  379 mt 6074  379 L
 873 4502 mt  873  379 L
6074 4502 mt 6074  379 L
gs 873 379 5202 4124 rc
/c8 { 0.000000 0.000000 1.000000 sr} bdef
c8
-22 0 -39 0 -39 0 -39 0 -39 0 -38 0 -38 0 -38 0 
-38 0 -37 0 -37 0 -37 0 -36 0 -36 0 -36 0 -36 0 
-35 0 -35 0 -35 0 -34 0 -35 0 -34 0 -33 0 -34 0 
-33 0 -32 0 -33 0 -32 0 -32 0 -31 0 -32 0 -30 0 
-31 0 -30 0 -30 0 -30 0 -29 0 -29 0 -29 0 -29 0 
-28 0 -28 0 -27 0 -27 0 -27 0 -26 0 -27 0 -25 0 
-26 0 -25 0 -25 0 -25 0 -24 0 -24 0 -23 0 -23 0 
-23 0 -23 0 -22 0 -22 0 -22 0 -21 0 -21 0 -20 0 
-21 0 -19 0 -20 0 -19 0 -19 0 -19 0 -18 0 -18 0 
-18 0 -17 0 -17 0 -16 0 -17 0 -16 0 -15 0 -16 0 
-15 0 -15 0 -14 0 -14 0 -14 0 -14 0 -13 0 -13 0 
-13 0 -12 0 -12 0 -12 33 -12 154 -11 150 -11 83 -11 121 
-11 115 -11 99 -10 98 -10 85 -10 79 -10 78 -10 83 -9 83 
-10 81 -9 79 -9 79 -9 75 -9 64 -10 64 -9 61 -9 33 
-9 33 -9 33 -9 -1 -9 -1 -9 -2 -10 -32 -9 -34 -9 -34 
-10 -67 -9 -72 -10 -73 -10 -75 -10 -77 -10 -78 -10 -79 -11 -81 
-10 -88 -11 -102 -12 -103 -11 -94 -12 -91 -12 -91 -12 -58 -12 -60 
-13 -62 -13 -62 -13 -136 -14 -172 -14 -38 -14 0 -14 0 -15 0 
-15 0 -15 0 -16 0 -16 0 -16 0 -17 0 -17 0 -17 0 
-18 0 -18 0 -18 0 -19 0 -18 0 -20 0 -19 0 -20 0 
-20 0 -21 0 -21 0 -21 0 -22 0 -22 0 -22 0 -22 0 
-23 0 -23 0 -24 0 -24 0 -24 0 -25 0 -25 0 -25 0 
-25 0 -26 0 -26 0 -27 0 -27 0 -27 0 -27 0 -28 0 
-28 0 -28 0 -29 0 -29 0 -30 0 -29 0 -30 0 -31 0 
-30 0 -31 0 -31 0 -32 0 -32 0 -32 0 -32 0 -33 0 
-33 0 -33 0 -34 0 -34 0 -34 0 -35 0 -35 0 -35 0 
-35 0 -36 0 -35 0 -37 0 -36 0 -37 0 -37 0 -37 0 
-38 0 -38 0 -38 0 -38 0 -39 0 -38 0 -40 0 -39 0 
-39 0 -12 0 6075 4502 227 MP stroke
/c9 { 0.000000 0.500000 0.000000 sr} bdef
c9
-22 0 -39 0 -39 0 -39 0 -39 0 -38 0 -38 0 -38 0 
-38 0 -37 0 -37 0 -37 0 -36 0 -36 0 -36 0 -36 0 
-35 0 -35 0 -35 0 -34 0 -35 0 -34 0 -33 0 -34 0 
-33 0 -32 0 -33 0 -32 0 -32 0 -31 0 -32 0 -30 0 
-31 0 -30 0 -30 0 -30 0 -29 0 -29 0 -29 0 -29 0 
-28 0 -28 0 -27 0 -27 0 -27 0 -26 0 -27 0 -25 0 
-26 0 -25 0 -25 0 -25 0 -24 0 -24 0 -23 0 -23 0 
-23 0 -23 0 -22 0 -22 0 -22 0 -21 0 -21 0 -20 0 
-21 0 -19 0 -20 0 -19 0 -19 0 -19 38 -18 73 -18 110 
-18 34 -17 69 -17 43 -16 56 -17 57 -16 63 -15 59 -16 56 
-15 53 -15 53 -14 60 -14 62 -14 68 -14 73 -13 75 -13 67 
-13 62 -12 64 -12 67 -12 66 -12 78 -11 76 -11 80 -11 79 
-11 76 -11 74 -10 73 -10 76 -10 78 -10 77 -10 74 -9 73 
-10 73 -9 65 -9 64 -9 64 -9 62 -10 61 -9 61 -9 36 
-9 34 -9 35 -9 0 -9 0 -9 0 -10 -32 -9 -35 -9 -35 
-10 -61 -9 -62 -10 -63 -10 -73 -10 -74 -10 -76 -10 -76 -11 -77 
-10 -79 -11 -80 -12 -83 -11 -87 -12 -89 -12 -85 -12 -79 -12 -79 
-13 -76 -13 -77 -13 -77 -14 -79 -14 -69 -14 -67 -14 -73 -15 -78 
-15 -67 -15 -66 -16 -57 -16 -58 -16 -58 -17 -59 -17 -51 -17 -51 
-18 -51 -18 -58 -18 -61 -19 -43 -18 -39 -20 -36 -19 -36 -20 -121 
-20 -64 -21 0 -21 0 -21 0 -22 0 -22 0 -22 0 -22 0 
-23 0 -23 0 -24 0 -24 0 -24 0 -25 0 -25 0 -25 0 
-25 0 -26 0 -26 0 -27 0 -27 0 -27 0 -27 0 -28 0 
-28 0 -28 0 -29 0 -29 0 -30 0 -29 0 -30 0 -31 0 
-30 0 -31 0 -31 0 -32 0 -32 0 -32 0 -32 0 -33 0 
-33 0 -33 0 -34 0 -34 0 -34 0 -35 0 -35 0 -35 0 
-35 0 -36 0 -35 0 -37 0 -36 0 -37 0 -37 0 -37 0 
-38 0 -38 0 -38 0 -38 0 -39 0 -38 0 -40 0 -39 0 
-39 0 -12 0 6075 4502 227 MP stroke
/c10 { 1.000000 0.000000 0.000000 sr} bdef
c10
-22 0 -39 0 -39 0 -39 0 -39 0 -38 0 -38 0 -38 0 
-38 0 -37 0 -37 0 -37 0 -36 0 -36 0 -36 0 -36 0 
-35 0 -35 0 -35 0 -34 0 -35 0 -34 0 -33 0 -34 0 
-33 0 -32 0 -33 0 -32 0 -32 0 -31 0 -32 0 -30 66 
-31 28 -30 21 -30 25 -30 29 -29 16 -29 18 -29 28 -29 19 
-28 42 -28 17 -27 13 -27 20 -27 24 -26 28 -27 25 -25 16 
-26 26 -25 24 -25 32 -25 28 -24 23 -24 35 -23 21 -23 22 
-23 31 -23 39 -22 34 -22 17 -22 27 -21 39 -21 38 -20 30 
-21 39 -19 36 -20 33 -19 32 -19 42 -19 42 -18 37 -18 44 
-18 44 -17 41 -17 43 -16 47 -17 43 -16 46 -15 62 -16 53 
-15 45 -15 54 -14 58 -14 58 -14 57 -14 62 -13 60 -13 66 
-13 67 -12 66 -12 66 -12 66 -12 74 -11 72 -11 72 -11 71 
-11 73 -11 77 -10 76 -10 77 -10 75 -10 73 -10 69 -9 68 
-10 68 -9 64 -9 65 -9 63 -9 51 -10 51 -9 50 -9 31 
-9 29 -9 30 -9 0 -9 -1 -9 0 -10 -27 -9 -28 -9 -29 
-10 -52 -9 -55 -10 -56 -10 -65 -10 -67 -10 -70 -10 -78 -11 -79 
-10 -79 -11 -79 -12 -80 -11 -80 -12 -81 -12 -82 -12 -84 -12 -82 
-13 -74 -13 -75 -13 -76 -14 -77 -14 -66 -14 -67 -14 -69 -15 -69 
-15 -60 -15 -61 -16 -60 -16 -57 -16 -51 -17 -55 -17 -57 -17 -47 
-18 -47 -18 -52 -18 -44 -19 -43 -18 -45 -20 -41 -19 -42 -20 -46 
-20 -33 -21 -34 -21 -40 -21 -44 -22 -31 -22 -31 -22 -34 -22 -31 
-23 -23 -23 -33 -24 -41 -24 -37 -24 -13 -25 -26 -25 -30 -25 -28 
-25 -23 -26 -29 -26 -30 -27 -17 -27 -15 -27 -33 -27 -28 -28 -22 
-28 -16 -28 -14 -29 -28 -29 -21 -30 -28 -29 -20 -30 -16 -31 -11 
-30 -16 -31 -22 -31 -16 -32 -14 -32 -13 -32 -10 -32 -10 -33 -11 
-33 -13 -33 -16 -34 -53 -34 0 -34 0 -35 0 -35 0 -35 0 
-35 0 -36 0 -35 0 -37 0 -36 0 -37 0 -37 0 -37 0 
-38 0 -38 0 -38 0 -38 0 -39 0 -38 0 -40 0 -39 0 
-39 0 -12 0 6075 4502 227 MP stroke
gr

c10
0 sg
1882  284 mt 
(Confronto NACA0012 al variare del diametro della particelle) s
3342 4790 mt 
(s [m]) s
%%IncludeResource: font Symbol
/Symbol /ISOLatin1Encoding 120 FMSR

 582 2474 mt  -90 rotate
(b) s
90 rotate
%%IncludeResource: font Helvetica
/Helvetica /ISOLatin1Encoding 120 FMSR

 856 4545 mt 
( ) s
6058  421 mt 
( ) s
1 sg
0 534 839 0 0 -534 5176 973 4 MP
PP
-839 0 0 534 839 0 0 -534 5176 973 5 MP stroke
4 w
DO
SO
6 w
0 sg
5176  973 mt 6015  973 L
5176  439 mt 6015  439 L
5176  973 mt 5176  439 L
6015  973 mt 6015  439 L
5176  973 mt 6015  973 L
5176  973 mt 5176  439 L
5176  973 mt 6015  973 L
5176  439 mt 6015  439 L
5176  973 mt 5176  439 L
6015  973 mt 6015  439 L
5586  584 mt 
(10 ) s
%%IncludeResource: font Symbol
/Symbol /ISOLatin1Encoding 120 FMSR

5752  584 mt 
(m) s
%%IncludeResource: font Helvetica
/Helvetica /ISOLatin1Encoding 120 FMSR

5821  584 mt 
(m) s
gs 5176 439 840 535 rc
c8
315 0 5238 541 2 MP stroke
gr

c8
0 sg
5586  750 mt 
(20 ) s
%%IncludeResource: font Symbol
/Symbol /ISOLatin1Encoding 120 FMSR

5752  750 mt 
(m) s
%%IncludeResource: font Helvetica
/Helvetica /ISOLatin1Encoding 120 FMSR

5821  750 mt 
(m) s
gs 5176 439 840 535 rc
c9
315 0 5238 706 2 MP stroke
gr

c9
0 sg
5586  915 mt 
(50 ) s
%%IncludeResource: font Symbol
/Symbol /ISOLatin1Encoding 120 FMSR

5752  915 mt 
(m) s
%%IncludeResource: font Helvetica
/Helvetica /ISOLatin1Encoding 120 FMSR

5821  915 mt 
(m) s
gs 5176 439 840 535 rc
c10
315 0 5238 870 2 MP stroke
gr

c10

end %%Color Dict

eplot
%%EndObject

epage
end

showpage

%%Trailer
%%EOF
