%!PS-Adobe-3.0 EPSF-3.0
%%Creator: MATLAB, The MathWorks, Inc. Version 7.12.0.635 (R2011a). Operating System: Darwin 12.3.0 Darwin Kernel Version 12.3.0: Sun Jan  6 22:37:10 PST 2013; root:xnu-2050.22.13~1/RELEASE_X86_64 x86_64.
%%Title: /Users/mattiagarabelli/Desktop/Latex -Tesi/confronto_!alfa_c05_20.eps
%%CreationDate: 05/03/2013  14:01:13
%%DocumentNeededFonts: Helvetica
%%DocumentProcessColors: Cyan Magenta Yellow Black
%%LanguageLevel: 2
%%Pages: 1
%%BoundingBox:    17   210   576   632
%%EndComments

%%BeginProlog
% MathWorks dictionary
/MathWorks 160 dict begin
% definition operators
/bdef {bind def} bind def
/ldef {load def} bind def
/xdef {exch def} bdef
/xstore {exch store} bdef
% operator abbreviations
/c  /clip ldef
/cc /concat ldef
/cp /closepath ldef
/gr /grestore ldef
/gs /gsave ldef
/mt /moveto ldef
/np /newpath ldef
/cm /currentmatrix ldef
/sm /setmatrix ldef
/rm /rmoveto ldef
/rl /rlineto ldef
/s {show newpath} bdef
/sc {setcmykcolor} bdef
/sr /setrgbcolor ldef
/sg /setgray ldef
/w /setlinewidth ldef
/j /setlinejoin ldef
/cap /setlinecap ldef
/rc {rectclip} bdef
/rf {rectfill} bdef
% page state control
/pgsv () def
/bpage {/pgsv save def} bdef
/epage {pgsv restore} bdef
/bplot /gsave ldef
/eplot {stroke grestore} bdef
% orientation switch
/portraitMode 0 def /landscapeMode 1 def /rotateMode 2 def
% coordinate system mappings
/dpi2point 0 def
% font control
/FontSize 0 def
/FMS {/FontSize xstore findfont [FontSize 0 0 FontSize neg 0 0]
  makefont setfont} bdef
/reencode {exch dup where {pop load} {pop StandardEncoding} ifelse
  exch dup 3 1 roll findfont dup length dict begin
  { 1 index /FID ne {def}{pop pop} ifelse } forall
  /Encoding exch def currentdict end definefont pop} bdef
/isroman {findfont /CharStrings get /Agrave known} bdef
/FMSR {3 1 roll 1 index dup isroman {reencode} {pop pop} ifelse
  exch FMS} bdef
/csm {1 dpi2point div -1 dpi2point div scale neg translate
 dup landscapeMode eq {pop -90 rotate}
  {rotateMode eq {90 rotate} if} ifelse} bdef
% line types: solid, dotted, dashed, dotdash
/SO { [] 0 setdash } bdef
/DO { [.5 dpi2point mul 4 dpi2point mul] 0 setdash } bdef
/DA { [6 dpi2point mul] 0 setdash } bdef
/DD { [.5 dpi2point mul 4 dpi2point mul 6 dpi2point mul 4
  dpi2point mul] 0 setdash } bdef
% macros for lines and objects
/L {lineto stroke} bdef
/MP {3 1 roll moveto 1 sub {rlineto} repeat} bdef
/AP {{rlineto} repeat} bdef
/PDlw -1 def
/W {/PDlw currentlinewidth def setlinewidth} def
/PP {closepath eofill} bdef
/DP {closepath stroke} bdef
/MR {4 -2 roll moveto dup  0 exch rlineto exch 0 rlineto
  neg 0 exch rlineto closepath} bdef
/FR {MR stroke} bdef
/PR {MR fill} bdef
/L1i {{currentfile picstr readhexstring pop} image} bdef
/tMatrix matrix def
/MakeOval {newpath tMatrix currentmatrix pop translate scale
0 0 1 0 360 arc tMatrix setmatrix} bdef
/FO {MakeOval stroke} bdef
/PO {MakeOval fill} bdef
/PD {currentlinewidth 2 div 0 360 arc fill
   PDlw -1 eq not {PDlw w /PDlw -1 def} if} def
/FA {newpath tMatrix currentmatrix pop translate scale
  0 0 1 5 -2 roll arc tMatrix setmatrix stroke} bdef
/PA {newpath tMatrix currentmatrix pop	translate 0 0 moveto scale
  0 0 1 5 -2 roll arc closepath tMatrix setmatrix fill} bdef
/FAn {newpath tMatrix currentmatrix pop translate scale
  0 0 1 5 -2 roll arcn tMatrix setmatrix stroke} bdef
/PAn {newpath tMatrix currentmatrix pop translate 0 0 moveto scale
  0 0 1 5 -2 roll arcn closepath tMatrix setmatrix fill} bdef
/vradius 0 def /hradius 0 def /lry 0 def
/lrx 0 def /uly 0 def /ulx 0 def /rad 0 def
/MRR {/vradius xdef /hradius xdef /lry xdef /lrx xdef /uly xdef
  /ulx xdef newpath tMatrix currentmatrix pop ulx hradius add uly
  vradius add translate hradius vradius scale 0 0 1 180 270 arc 
  tMatrix setmatrix lrx hradius sub uly vradius add translate
  hradius vradius scale 0 0 1 270 360 arc tMatrix setmatrix
  lrx hradius sub lry vradius sub translate hradius vradius scale
  0 0 1 0 90 arc tMatrix setmatrix ulx hradius add lry vradius sub
  translate hradius vradius scale 0 0 1 90 180 arc tMatrix setmatrix
  closepath} bdef
/FRR {MRR stroke } bdef
/PRR {MRR fill } bdef
/MlrRR {/lry xdef /lrx xdef /uly xdef /ulx xdef /rad lry uly sub 2 div def
  newpath tMatrix currentmatrix pop ulx rad add uly rad add translate
  rad rad scale 0 0 1 90 270 arc tMatrix setmatrix lrx rad sub lry rad
  sub translate rad rad scale 0 0 1 270 90 arc tMatrix setmatrix
  closepath} bdef
/FlrRR {MlrRR stroke } bdef
/PlrRR {MlrRR fill } bdef
/MtbRR {/lry xdef /lrx xdef /uly xdef /ulx xdef /rad lrx ulx sub 2 div def
  newpath tMatrix currentmatrix pop ulx rad add uly rad add translate
  rad rad scale 0 0 1 180 360 arc tMatrix setmatrix lrx rad sub lry rad
  sub translate rad rad scale 0 0 1 0 180 arc tMatrix setmatrix
  closepath} bdef
/FtbRR {MtbRR stroke } bdef
/PtbRR {MtbRR fill } bdef
/stri 6 array def /dtri 6 array def
/smat 6 array def /dmat 6 array def
/tmat1 6 array def /tmat2 6 array def /dif 3 array def
/asub {/ind2 exch def /ind1 exch def dup dup
  ind1 get exch ind2 get sub exch } bdef
/tri_to_matrix {
  2 0 asub 3 1 asub 4 0 asub 5 1 asub
  dup 0 get exch 1 get 7 -1 roll astore } bdef
/compute_transform {
  dmat dtri tri_to_matrix tmat1 invertmatrix 
  smat stri tri_to_matrix tmat2 concatmatrix } bdef
/ds {stri astore pop} bdef
/dt {dtri astore pop} bdef
/db {2 copy /cols xdef /rows xdef mul dup 3 mul string
  currentfile 
  3 index 0 eq {/ASCIIHexDecode filter}
  {/ASCII85Decode filter 3 index 2 eq {/RunLengthDecode filter} if }
  ifelse exch readstring pop
  dup 0 3 index getinterval /rbmap xdef
  dup 2 index dup getinterval /gbmap xdef
  1 index dup 2 mul exch getinterval /bbmap xdef pop pop}bdef
/it {gs np dtri aload pop moveto lineto lineto cp c
  cols rows 8 compute_transform 
  rbmap gbmap bbmap true 3 colorimage gr}bdef
/il {newpath moveto lineto stroke}bdef
currentdict end def
%%EndProlog

%%BeginSetup
MathWorks begin

0 cap

end
%%EndSetup

%%Page: 1 1
%%BeginPageSetup
%%PageBoundingBox:    17   210   576   632
MathWorks begin
bpage
%%EndPageSetup

%%BeginObject: obj1
bplot

/dpi2point 12 def
portraitMode 0204 7584 csm

    0     0  6712  5058 rc
85 dict begin %Colortable dictionary
/c0 { 0.000000 0.000000 0.000000 sr} bdef
/c1 { 1.000000 1.000000 1.000000 sr} bdef
/c2 { 0.900000 0.000000 0.000000 sr} bdef
/c3 { 0.000000 0.820000 0.000000 sr} bdef
/c4 { 0.000000 0.000000 0.800000 sr} bdef
/c5 { 0.910000 0.820000 0.320000 sr} bdef
/c6 { 1.000000 0.260000 0.820000 sr} bdef
/c7 { 0.000000 0.820000 0.820000 sr} bdef
c0
1 j
1 sg
   0    0 6713 5059 rf
6 w
0 4123 5201 0 0 -4123 873 4502 4 MP
PP
-5201 0 0 4123 5201 0 0 -4123 873 4502 5 MP stroke
4 w
DO
0 sg
 873 4502 mt  873  379 L
 873  379 mt  873  379 L
1393 4502 mt 1393  379 L
1393  379 mt 1393  379 L
1913 4502 mt 1913  379 L
1913  379 mt 1913  379 L
2433 4502 mt 2433  379 L
2433  379 mt 2433  379 L
2953 4502 mt 2953  379 L
2953  379 mt 2953  379 L
3473 4502 mt 3473  379 L
3473  379 mt 3473  379 L
3993 4502 mt 3993  379 L
3993  379 mt 3993  379 L
4513 4502 mt 4513  379 L
4513  379 mt 4513  379 L
5033 4502 mt 5033  379 L
5033  379 mt 5033  379 L
5553 4502 mt 5553  379 L
5553  379 mt 5553  379 L
6074 4502 mt 6074  379 L
6074  379 mt 6074  379 L
 873 4502 mt 6074 4502 L
6074 4502 mt 6074 4502 L
 873 3986 mt 6074 3986 L
6074 3986 mt 6074 3986 L
 873 3471 mt 6074 3471 L
6074 3471 mt 6074 3471 L
 873 2955 mt 6074 2955 L
6074 2955 mt 6074 2955 L
 873 2440 mt 6074 2440 L
6074 2440 mt 6074 2440 L
 873 1925 mt 6074 1925 L
6074 1925 mt 6074 1925 L
 873 1409 mt 6074 1409 L
6074 1409 mt 6074 1409 L
 873  894 mt 6074  894 L
6074  894 mt 6074  894 L
 873  379 mt 6074  379 L
6074  379 mt 6074  379 L
SO
6 w
 873 4502 mt 6074 4502 L
 873  379 mt 6074  379 L
 873 4502 mt  873  379 L
6074 4502 mt 6074  379 L
 873 4502 mt 6074 4502 L
 873 4502 mt  873  379 L
 873 4502 mt  873 4449 L
 873  379 mt  873  431 L
%%IncludeResource: font Helvetica
/Helvetica /ISOLatin1Encoding 120 FMSR

 687 4647 mt 
(-0.05) s
1393 4502 mt 1393 4449 L
1393  379 mt 1393  431 L
1207 4647 mt 
(-0.04) s
1913 4502 mt 1913 4449 L
1913  379 mt 1913  431 L
1727 4647 mt 
(-0.03) s
2433 4502 mt 2433 4449 L
2433  379 mt 2433  431 L
2247 4647 mt 
(-0.02) s
2953 4502 mt 2953 4449 L
2953  379 mt 2953  431 L
2767 4647 mt 
(-0.01) s
3473 4502 mt 3473 4449 L
3473  379 mt 3473  431 L
3440 4647 mt 
(0) s
3993 4502 mt 3993 4449 L
3993  379 mt 3993  431 L
3877 4647 mt 
(0.01) s
4513 4502 mt 4513 4449 L
4513  379 mt 4513  431 L
4397 4647 mt 
(0.02) s
5033 4502 mt 5033 4449 L
5033  379 mt 5033  431 L
4917 4647 mt 
(0.03) s
5553 4502 mt 5553 4449 L
5553  379 mt 5553  431 L
5437 4647 mt 
(0.04) s
6074 4502 mt 6074 4449 L
6074  379 mt 6074  431 L
5958 4647 mt 
(0.05) s
 873 4502 mt  925 4502 L
6074 4502 mt 6021 4502 L
 772 4546 mt 
(0) s
 873 3986 mt  925 3986 L
6074 3986 mt 6021 3986 L
 672 4030 mt 
(0.1) s
 873 3471 mt  925 3471 L
6074 3471 mt 6021 3471 L
 672 3515 mt 
(0.2) s
 873 2955 mt  925 2955 L
6074 2955 mt 6021 2955 L
 672 2999 mt 
(0.3) s
 873 2440 mt  925 2440 L
6074 2440 mt 6021 2440 L
 672 2484 mt 
(0.4) s
 873 1925 mt  925 1925 L
6074 1925 mt 6021 1925 L
 672 1969 mt 
(0.5) s
 873 1409 mt  925 1409 L
6074 1409 mt 6021 1409 L
 672 1453 mt 
(0.6) s
 873  894 mt  925  894 L
6074  894 mt 6021  894 L
 672  938 mt 
(0.7) s
 873  379 mt  925  379 L
6074  379 mt 6021  379 L
 672  423 mt 
(0.8) s
 873 4502 mt 6074 4502 L
 873  379 mt 6074  379 L
 873 4502 mt  873  379 L
6074 4502 mt 6074  379 L
gs 873 379 5202 4124 rc
/c8 { 0.000000 0.000000 1.000000 sr} bdef
c8
-46 0 -57 0 -56 0 -56 0 -55 0 -54 0 -54 0 -53 0 
-52 0 -52 0 -51 0 -50 0 -50 0 -49 0 -49 0 -47 0 
-47 0 -47 0 -46 0 -45 0 -44 0 -44 0 -43 0 -43 0 
-41 0 -42 0 -40 0 -40 0 -39 0 -39 0 -37 0 -37 47 
-37 92 -36 137 -35 42 -35 87 -34 54 -33 69 -32 72 -32 79 
-32 73 -31 70 -30 66 -29 66 -29 75 -28 78 -28 85 -27 92 
-27 93 -26 84 -25 78 -25 79 -24 84 -24 83 -24 98 -22 95 
-23 99 -22 99 -21 96 -21 92 -21 91 -20 95 -20 97 -20 96 
-19 93 -19 92 -19 90 -19 81 -18 81 -19 80 -18 77 -18 77 
-18 76 -19 44 -18 44 -18 43 -18 0 -18 0 -19 1 -18 -40 
-19 -44 -18 -45 -19 -76 -19 -77 -20 -79 -19 -91 -20 -93 -20 -95 
-21 -94 -21 -97 -22 -98 -22 -101 -22 -103 -23 -109 -23 -112 -24 -105 
-24 -99 -25 -100 -26 -94 -26 -96 -26 -97 -27 -98 -28 -87 -28 -83 
-29 -91 -30 -98 -30 -84 -31 -82 -31 -72 -32 -72 -33 -73 -33 -73 
-34 -64 -34 -64 -36 -64 -35 -72 -37 -76 -37 -54 -38 -49 -38 -44 
-40 -46 -39 -151 -41 -80 -41 0 -42 0 -42 0 -43 0 -44 0 
-45 0 -45 0 -45 0 -47 0 -47 0 -48 0 -48 0 -49 0 
-50 0 -50 0 -51 0 -52 0 -52 0 -53 0 -54 0 -54 0 
-55 0 -56 0 -56 0 -57 0 -57 0 -46 0 6075 4502 151 MP stroke
/c9 { 0.000000 0.500000 0.000000 sr} bdef
c9
-35 0 -60 0 -59 0 -59 0 -58 0 -58 0 -56 0 -57 0 
-55 0 -55 0 -54 61 -54 54 -53 44 -52 33 -52 57 -51 22 
-50 84 -50 -39 -49 79 -49 38 -47 30 -48 32 -46 35 -46 60 
-45 53 -44 20 -44 60 -43 37 -43 44 -42 49 -41 46 -40 34 
-40 41 -39 47 -39 46 -37 61 -38 55 -36 37 -36 70 -35 67 
-35 46 -34 58 -33 63 -33 59 -32 58 -31 58 -31 66 -30 69 
-29 59 -29 56 -28 66 -28 64 -27 71 -27 69 -26 70 -25 70 
-25 74 -24 75 -24 75 -24 74 -22 71 -23 62 -22 60 -21 73 
-21 81 -21 80 -20 63 -20 62 -20 58 -19 40 -19 39 -19 30 
-19 10 -18 9 -19 4 -18 -4 -18 -3 -18 -10 -19 -27 -18 -28 
-18 -34 -18 -55 -19 -55 -18 -57 -18 -69 -19 -69 -18 -73 -19 -129 
-19 -130 -20 -133 -19 -136 -20 -140 -21 -142 -20 -152 -21 -155 -22 -156 
-22 -154 -22 -158 -23 -147 -23 -143 -24 -146 -24 -106 -25 -105 -26 -108 
-26 -111 -26 -225 -27 -231 -28 -8 -28 0 -29 0 -30 0 -30 0 
-31 0 -31 0 -32 0 -33 0 -33 0 -34 0 -34 0 -36 0 
-36 0 -36 0 -37 0 -38 0 -39 0 -39 0 -39 0 -41 0 
-41 0 -42 0 -42 0 -43 0 -44 0 -45 0 -45 0 -46 0 
-46 0 -47 0 -48 0 -48 0 -49 0 -50 0 -51 0 -51 0 
-51 0 -53 0 -53 0 -53 0 -55 0 -44 0 6075 4502 151 MP stroke
/c10 { 1.000000 0.000000 0.000000 sr} bdef
c10
-5 0 -62 0 -61 0 -61 43 -59 54 -60 51 -59 33 -58 16 
-57 26 -57 73 -56 37 -56 19 -55 -11 -54 50 -54 33 -53 34 
-52 8 -52 52 -51 52 -50 50 -50 24 -49 46 -48 30 -48 53 
-47 27 -47 24 -45 34 -46 50 -44 44 -44 26 -43 65 -42 59 
-42 43 -41 46 -41 47 -40 33 -39 25 -38 65 -38 55 -37 53 
-37 64 -36 54 -35 48 -34 51 -34 56 -34 60 -32 42 -32 41 
-32 77 -30 70 -30 56 -30 58 -29 60 -28 60 -28 59 -27 63 
-27 65 -26 67 -25 68 -25 74 -24 84 -24 82 -23 59 -23 58 
-23 55 -21 54 -22 52 -21 52 -21 50 -20 45 -20 36 -20 36 
-19 25 -19 19 -19 19 -19 -3 -18 -8 -19 -8 -18 -24 -18 -31 
-18 -31 -18 -44 -19 -57 -18 -57 -18 -82 -18 -104 -18 -105 -19 -122 
-18 -141 -19 -142 -19 -145 -19 -152 -19 -153 -20 -167 -20 -197 -20 -199 
-21 -204 -21 -209 -22 -212 -21 -135 -23 -99 -23 -100 -23 -103 -24 -105 
-24 -105 -25 -106 -25 -38 -26 0 -27 0 -27 0 -28 0 -28 0 
-29 0 -30 0 -30 0 -30 0 -32 0 -32 0 -32 0 -34 0 
-34 0 -34 0 -35 0 -36 0 -37 0 -37 0 -38 0 -38 0 
-39 0 -40 0 -41 0 -41 0 -42 0 -42 0 -43 0 -44 0 
-44 0 -45 0 -46 0 -47 0 -47 0 -48 0 -48 0 -49 0 
-50 0 -50 0 -51 0 -52 0 -52 0 -52 0 6075 4502 151 MP stroke
gr

c10
0 sg
2521  276 mt 
(Confronto NACA0012 al variare di ) s
%%IncludeResource: font Symbol
/Symbol /ISOLatin1Encoding 120 FMSR

4363  276 mt 
(a) s
%%IncludeResource: font Helvetica
/Helvetica /ISOLatin1Encoding 120 FMSR

3342 4790 mt 
(s [m]) s
%%IncludeResource: font Symbol
/Symbol /ISOLatin1Encoding 120 FMSR

 582 2474 mt  -90 rotate
(b) s
90 rotate
%%IncludeResource: font Helvetica
/Helvetica /ISOLatin1Encoding 120 FMSR

 856 4545 mt 
( ) s
6058  421 mt 
( ) s
1 sg
0 480 620 0 0 -480 5394 919 4 MP
PP
-620 0 0 480 620 0 0 -480 5394 919 5 MP stroke
4 w
DO
SO
6 w
0 sg
5394  919 mt 6014  919 L
5394  439 mt 6014  439 L
5394  919 mt 5394  439 L
6014  919 mt 6014  439 L
5394  919 mt 6014  919 L
5394  919 mt 5394  439 L
5394  919 mt 6014  919 L
5394  439 mt 6014  439 L
5394  919 mt 5394  439 L
6014  919 mt 6014  439 L
5835  573 mt 
(0\260) s
gs 5394 439 621 481 rc
c8
338 0 5461 530 2 MP stroke
gr

c8
0 sg
5835  722 mt 
(4\260) s
gs 5394 439 621 481 rc
c9
338 0 5461 679 2 MP stroke
gr

c9
0 sg
5835  870 mt 
(6\260) s
gs 5394 439 621 481 rc
c10
338 0 5461 827 2 MP stroke
gr

c10

end %%Color Dict

eplot
%%EndObject

epage
end

showpage

%%Trailer
%%EOF
