   0.1426937E-01  0.1920089E-01
   0.1309199E-01  0.1844131E-01
   0.1197828E-01  0.1768599E-01
   0.1092492E-01  0.1693400E-01
   0.9928973E-02  0.1618451E-01
   0.8987935E-02  0.1543667E-01
   0.8099543E-02  0.1468973E-01
   0.7262002E-02  0.1394293E-01
   0.6473651E-02  0.1319564E-01
   0.5733286E-02  0.1244724E-01
   0.5039805E-02  0.1169724E-01
   0.4392471E-02  0.1094524E-01
   0.3790677E-02  0.1019094E-01
   0.3234024E-02  0.9434186E-02
   0.2722322E-02  0.8675011E-02
   0.2255411E-02  0.7913594E-02
   0.1833276E-02  0.7150352E-02
   0.1455815E-02  0.6385704E-02
   0.1122983E-02  0.5620570E-02
   0.8347380E-03  0.4856122E-02
   0.5907100E-03  0.4093720E-02
   0.3902077E-03  0.3334122E-02
   0.2323595E-03  0.2577985E-02
   0.1163409E-03  0.1828019E-02
   0.4113948E-04  0.1088715E-02
   0.4520650E-05  0.3611317E-03
   0.4520650E-05 -0.3611317E-03
   0.4113948E-04 -0.1088715E-02
   0.1163409E-03 -0.1828019E-02
   0.2323595E-03 -0.2577985E-02
   0.3902077E-03 -0.3334122E-02
   0.5907100E-03 -0.4093720E-02
   0.8347380E-03 -0.4856122E-02
   0.1122983E-02 -0.5620570E-02
   0.1455815E-02 -0.6385704E-02
   0.1833276E-02 -0.7150352E-02
   0.2255411E-02 -0.7913594E-02
   0.2722322E-02 -0.8675011E-02
   0.3234024E-02 -0.9434186E-02
   0.3790677E-02 -0.1019094E-01
   0.4392471E-02 -0.1094524E-01
   0.5039805E-02 -0.1169724E-01
   0.5733286E-02 -0.1244724E-01
   0.6473651E-02 -0.1319564E-01
   0.7262002E-02 -0.1394293E-01
   0.8099543E-02 -0.1468973E-01
   0.8987935E-02 -0.1543667E-01
   0.9928973E-02 -0.1618451E-01
   0.1092492E-01 -0.1693400E-01
   0.1197828E-01 -0.1768599E-01
   0.1309199E-01 -0.1844131E-01
   0.1426937E-01 -0.1920089E-01
